<?xml version="1.0" encoding="utf-8"?>
<!-- Generator: Adobe Illustrator 20.0.0, SVG Export Plug-In . SVG Version: 6.00 Build 0)  -->
<svg version="1.1" id="Layer_1" xmlns="http://www.w3.org/2000/svg" xmlns:xlink="http://www.w3.org/1999/xlink" x="0px" y="0px"
	 viewBox="0 0 291.9 87.2" style="enable-background:new 0 0 291.9 87.2;" xml:space="preserve">
<style type="text/css">
	.st0{fill:#FFFFFF;}
</style>
<g id="XMLID_63_">
	<circle id="XMLID_83_" class="st0" cx="14.5" cy="28.3" r="2.5"/>
	<circle id="XMLID_82_" class="st0" cx="14.5" cy="35.5" r="2.5"/>
	<circle id="XMLID_81_" class="st0" cx="20.6" cy="21.9" r="2.5"/>
	<circle id="XMLID_80_" class="st0" cx="20.6" cy="28.3" r="2.5"/>
	<circle id="XMLID_79_" class="st0" cx="20.6" cy="35.5" r="2.5"/>
	<circle id="XMLID_78_" class="st0" cx="26.6" cy="21.9" r="2.5"/>
	<circle id="XMLID_77_" class="st0" cx="26.6" cy="28.3" r="2.5"/>
	<circle id="XMLID_76_" class="st0" cx="14.5" cy="41.9" r="2.5"/>
	<circle id="XMLID_75_" class="st0" cx="14.5" cy="48.3" r="2.5"/>
	<circle id="XMLID_74_" class="st0" cx="14.5" cy="54.7" r="2.5"/>
	<circle id="XMLID_73_" class="st0" cx="20.6" cy="41.9" r="2.5"/>
	<circle id="XMLID_72_" class="st0" cx="20.6" cy="48.3" r="2.5"/>
	<circle id="XMLID_71_" class="st0" cx="20.6" cy="54.7" r="2.5"/>
	<circle id="XMLID_70_" class="st0" cx="26.6" cy="41.9" r="2.5"/>
	<circle id="XMLID_69_" class="st0" cx="26.6" cy="48.3" r="2.5"/>
	<circle id="XMLID_68_" class="st0" cx="32.7" cy="21.9" r="2.5"/>
	<circle id="XMLID_67_" class="st0" cx="32.7" cy="28.3" r="2.5"/>
	<circle id="XMLID_66_" class="st0" cx="14.5" cy="61" r="2.5"/>
	<circle id="XMLID_65_" class="st0" cx="20.6" cy="61" r="2.5"/>
	<circle id="XMLID_64_" class="st0" cx="20.6" cy="67.4" r="2.5"/>
</g>
<g id="XMLID_48_">
	<circle id="XMLID_62_" class="st0" cx="38.8" cy="21.9" r="2.5"/>
	<circle id="XMLID_61_" class="st0" cx="38.8" cy="28.3" r="2.5"/>
	<circle id="XMLID_60_" class="st0" cx="32.7" cy="35.5" r="2.5"/>
	<circle id="XMLID_59_" class="st0" cx="38.8" cy="35.5" r="2.5"/>
	<circle id="XMLID_58_" class="st0" cx="32.7" cy="41.9" r="2.5"/>
	<circle id="XMLID_57_" class="st0" cx="32.7" cy="48.3" r="2.5"/>
	<circle id="XMLID_56_" class="st0" cx="38.8" cy="41.9" r="2.5"/>
	<circle id="XMLID_55_" class="st0" cx="38.8" cy="48.3" r="2.5"/>
	<circle id="XMLID_54_" class="st0" cx="26.6" cy="61" r="2.5"/>
	<circle id="XMLID_53_" class="st0" cx="26.6" cy="67.4" r="2.5"/>
	<circle id="XMLID_52_" class="st0" cx="32.7" cy="61" r="2.5"/>
	<circle id="XMLID_51_" class="st0" cx="32.7" cy="67.4" r="2.5"/>
	<circle id="XMLID_50_" class="st0" cx="38.8" cy="61" r="2.5"/>
	<circle id="XMLID_49_" class="st0" cx="38.8" cy="67.4" r="2.5"/>
</g>
<g id="XMLID_25_">
	<path id="XMLID_46_" class="st0" d="M50.4,33.6V20h6.8v1.2h-5.5v4.3h5.5v1.2h-5.5v5.9h5.5v1.2H50.4z"/>
	<path id="XMLID_44_" class="st0" d="M60.2,33.6V20h1.2v12.5h4.7v1.2H60.2z"/>
	<path id="XMLID_42_" class="st0" d="M68.1,33.6V20h6.8v1.2h-5.5v4.3h5.5v1.2h-5.5v5.9h5.5v1.2H68.1z"/>
	<path id="XMLID_40_" class="st0" d="M77.9,33.6V20h1.2v6.4l6.2-6.4h1.6l-6.5,6.5l6.8,7.1h-1.8l-6.3-6.9v6.9H77.9z"/>
	<path id="XMLID_38_" class="st0" d="M90.6,33.6V21.1h-3.8V20h8.8v1.2h-3.8v12.5H90.6z"/>
	<path id="XMLID_35_" class="st0" d="M106,33.6h-1.5l-4.8-6.5h-0.7v6.5h-1.2V20h2.5c1.5,0,2.6,0.3,3.3,0.9c0.7,0.6,1.1,1.5,1.1,2.8
		c0,1.1-0.3,1.9-0.9,2.5c-0.6,0.6-1.5,0.9-2.6,0.9L106,33.6z M98.9,21.1v5h1.3c1.2,0,2-0.2,2.4-0.6c0.5-0.4,0.7-1,0.7-1.9
		c0-0.9-0.2-1.6-0.7-2s-1.3-0.6-2.4-0.6H98.9z"/>
	<path id="XMLID_32_" class="st0" d="M121.8,26.8c0,1-0.2,1.9-0.6,2.7c-0.4,0.9-0.9,1.6-1.6,2.3c-0.7,0.7-1.5,1.2-2.4,1.6
		s-1.8,0.5-2.8,0.5c-1,0-1.9-0.2-2.8-0.5c-0.9-0.4-1.7-0.9-2.4-1.6c-0.7-0.7-1.2-1.5-1.6-2.3c-0.4-0.9-0.5-1.8-0.5-2.7
		c0-1,0.2-1.9,0.5-2.8c0.4-0.9,0.9-1.6,1.6-2.3c0.7-0.7,1.5-1.2,2.3-1.5c0.9-0.3,1.8-0.5,2.8-0.5c1,0,2,0.2,2.8,0.5
		c0.9,0.4,1.7,0.9,2.3,1.5c0.7,0.7,1.2,1.5,1.6,2.3C121.6,24.9,121.8,25.9,121.8,26.8z M114.4,32.9c0.8,0,1.6-0.1,2.3-0.4
		c0.7-0.3,1.4-0.7,2-1.3c0.6-0.6,1-1.2,1.3-2c0.3-0.7,0.5-1.5,0.5-2.3c0-0.8-0.1-1.6-0.4-2.3c-0.3-0.7-0.7-1.4-1.3-2
		c-0.6-0.6-1.2-1-1.9-1.3c-0.7-0.3-1.5-0.4-2.3-0.4c-0.8,0-1.6,0.1-2.3,0.4c-0.7,0.3-1.4,0.7-1.9,1.3c-0.6,0.6-1,1.2-1.3,2
		c-0.3,0.7-0.4,1.5-0.4,2.3c0,0.8,0.1,1.6,0.4,2.3c0.3,0.7,0.7,1.4,1.3,2c0.6,0.6,1.2,1,1.9,1.3C112.8,32.7,113.6,32.9,114.4,32.9z"
		/>
	<path id="XMLID_30_" class="st0" d="M124.5,33.6V19.4l9.7,11.4V20h1.2V34l-9.7-11.5v11.1H124.5z"/>
	<path id="XMLID_28_" class="st0" d="M138.8,33.6V20h1.2v13.7H138.8z"/>
	<path id="XMLID_26_" class="st0" d="M143.4,33.6V20h1.2v6.4l6.2-6.4h1.6l-6.5,6.5l6.8,7.1h-1.8l-6.3-6.9v6.9H143.4z"/>
</g>
<g id="XMLID_1_">
	<path id="XMLID_23_" class="st0" d="M64.8,45.2h-10v6.9h9.7v4.1h-9.7V70h-4.3V41.1h14.4V45.2z"/>
	<path id="XMLID_20_" class="st0" d="M68.4,55.4c0-4.1,1.5-7.5,4.5-10.5c3-2.9,6.5-4.4,10.7-4.4c4.1,0,7.6,1.5,10.6,4.4
		c2.9,2.9,4.4,6.5,4.4,10.6c0,4.1-1.5,7.7-4.4,10.5c-3,2.9-6.6,4.3-10.8,4.3c-3.7,0-7.1-1.3-10-3.9C70,63.8,68.4,60,68.4,55.4z
		 M72.8,55.5c0,3.2,1.1,5.8,3.2,7.9c2.1,2.1,4.6,3.1,7.4,3.1c3,0,5.6-1,7.7-3.1c2.1-2.1,3.1-4.7,3.1-7.7c0-3.1-1-5.6-3.1-7.7
		c-2-2.1-4.6-3.1-7.6-3.1c-3,0-5.5,1-7.6,3.1C73.8,49.9,72.8,52.4,72.8,55.5z"/>
	<path id="XMLID_17_" class="st0" d="M113.8,57.7l8.9,12.3h-5.3l-8.2-11.8h-0.8V70H104V41.1h5.1c3.8,0,6.6,0.7,8.3,2.1
		c1.9,1.6,2.8,3.7,2.8,6.3c0,2-0.6,3.8-1.8,5.3S115.7,57.3,113.8,57.7z M108.4,54.4h1.4c4.1,0,6.2-1.6,6.2-4.7c0-2.9-2-4.4-6-4.4
		h-1.5V54.4z"/>
	<path id="XMLID_15_" class="st0" d="M143.3,45.4l-3.5,2.1c-0.7-1.1-1.3-1.9-1.9-2.2c-0.6-0.4-1.4-0.6-2.4-0.6c-1.2,0-2.2,0.3-3,1
		c-0.8,0.7-1.2,1.5-1.2,2.5c0,1.4,1,2.5,3.1,3.4l2.9,1.2c2.3,0.9,4.1,2.1,5.1,3.5c1.1,1.4,1.6,3,1.6,5c0,2.7-0.9,4.8-2.7,6.6
		c-1.8,1.7-4,2.6-6.6,2.6c-2.5,0-4.6-0.7-6.2-2.2c-1.6-1.5-2.6-3.6-3-6.3l4.4-1c0.2,1.7,0.5,2.9,1,3.5c0.9,1.2,2.2,1.9,3.9,1.9
		c1.4,0,2.5-0.5,3.4-1.4s1.3-2.1,1.3-3.5c0-0.6-0.1-1.1-0.2-1.5c-0.2-0.5-0.4-0.9-0.7-1.3s-0.8-0.8-1.3-1.1c-0.5-0.3-1.1-0.7-1.9-1
		l-2.8-1.2c-3.9-1.7-5.9-4.1-5.9-7.3c0-2.2,0.8-4,2.5-5.4c1.7-1.5,3.7-2.2,6.2-2.2C138.9,40.6,141.5,42.2,143.3,45.4z"/>
	<path id="XMLID_13_" class="st0" d="M153.7,41.1V70h-4.3V41.1H153.7z"/>
	<path id="XMLID_11_" class="st0" d="M164.9,52.6l11.2-11.5h5.8l-13,13L182,70h-5.8l-10.4-12.8l-0.9,0.9V70h-4.3V41.1h4.3V52.6z"/>
	<path id="XMLID_8_" class="st0" d="M195.7,57.7l8.9,12.3h-5.3l-8.2-11.8h-0.8V70h-4.3V41.1h5.1c3.8,0,6.6,0.7,8.3,2.1
		c1.9,1.6,2.8,3.7,2.8,6.3c0,2-0.6,3.8-1.8,5.3S197.6,57.3,195.7,57.7z M190.3,54.4h1.4c4.1,0,6.2-1.6,6.2-4.7c0-2.9-2-4.4-6-4.4
		h-1.5V54.4z"/>
	<path id="XMLID_6_" class="st0" d="M213.3,41.1V70h-4.3V41.1H213.3z"/>
	<path id="XMLID_4_" class="st0" d="M220.2,70V39.2l21,22v-20h4.3v30.6l-21-21.9V70H220.2z"/>
	<path id="XMLID_2_" class="st0" d="M267.6,54.9h11.9v1c0,2.2-0.3,4.1-0.8,5.7c-0.5,1.5-1.3,3-2.5,4.3c-2.7,3-6.1,4.5-10.2,4.5
		c-4,0-7.5-1.5-10.4-4.4c-2.9-2.9-4.3-6.4-4.3-10.5c0-4.2,1.5-7.7,4.4-10.6c2.9-2.9,6.5-4.4,10.7-4.4c2.3,0,4.4,0.5,6.3,1.4
		c1.9,0.9,3.7,2.4,5.5,4.5l-3.1,3c-2.4-3.1-5.2-4.7-8.6-4.7c-3,0-5.6,1.1-7.7,3.2c-2.1,2.1-3.1,4.7-3.1,7.8c0,3.2,1.2,5.9,3.5,7.9
		c2.2,1.9,4.5,2.9,7,2.9c2.1,0,4.1-0.7,5.8-2.2c1.7-1.5,2.7-3.2,2.9-5.2h-7.2V54.9z"/>
</g>
</svg>
